com\fengdu\service\impl\SysMenuServiceImpl.class
com\fengdu\entity\SysUserRoleEntity.class
com\fengdu\interceptor\LogInterceptor.class
com\fengdu\dao\SysRoleMenuDao.class
com\fengdu\entity\SysRoleMenuEntity.class
com\fengdu\service\SysUserRoleService.class
com\fengdu\entity\SysMenuEntity.class
com\fengdu\service\SysMenuService.class
com\fengdu\shiro\UserRealm.class
com\fengdu\controller\SysRoleController.class
com\fengdu\controller\SysUserController.class
com\fengdu\dao\SysUserDao.class
com\fengdu\entity\SysUserEntity.class
com\fengdu\service\SysRoleService.class
com\fengdu\App.class
com\fengdu\controller\AbstractController.class
com\fengdu\dao\SysMenuDao.class
com\fengdu\service\impl\SysUserServiceImpl.class
com\fengdu\service\impl\SysUserRoleServiceImpl.class
com\fengdu\service\SysRoleMenuService.class
com\fengdu\entity\SysRoleDeptEntity.class
com\fengdu\controller\SysMenuController.class
com\fengdu\utils\ShiroUtils.class
com\fengdu\service\SysRoleDeptService.class
com\fengdu\service\impl\SysRoleMenuServiceImpl.class
com\fengdu\service\SysUserService.class
com\fengdu\dao\SysRoleDao.class
com\fengdu\dao\SysUserRoleDao.class
com\fengdu\service\impl\SysRoleServiceImpl.class
com\fengdu\controller\SysLoginController.class
com\fengdu\dao\SysRoleDeptDao.class
com\fengdu\shiro\VelocityShiro.class
com\fengdu\entity\SysRoleEntity.class
com\fengdu\service\impl\SysRoleDeptServiceImpl.class
