E:\workspace\my-shop\my-shop-member\src\main\java\com\fengdu\App.java
E:\workspace\my-shop\my-shop-member\src\main\java\com\fengdu\service\impl\UserServiceImpl.java
E:\workspace\my-shop\my-shop-member\src\main\java\com\fengdu\entity\UserCouponEntity.java
E:\workspace\my-shop\my-shop-member\src\main\java\com\fengdu\entity\UserLevelEntity.java
E:\workspace\my-shop\my-shop-member\src\main\java\com\fengdu\service\UserCouponService.java
E:\workspace\my-shop\my-shop-member\src\main\java\com\fengdu\dao\UserLevelDao.java
E:\workspace\my-shop\my-shop-member\src\main\java\com\fengdu\controller\UserCouponController.java
E:\workspace\my-shop\my-shop-member\src\main\java\com\fengdu\service\impl\UserCouponServiceImpl.java
E:\workspace\my-shop\my-shop-member\src\main\java\com\fengdu\service\UserLevelService.java
E:\workspace\my-shop\my-shop-member\src\main\java\com\fengdu\dao\UserCouponDao.java
E:\workspace\my-shop\my-shop-member\src\main\java\com\fengdu\dao\UserDao.java
E:\workspace\my-shop\my-shop-member\src\main\java\com\fengdu\controller\UserLevelController.java
E:\workspace\my-shop\my-shop-member\src\main\java\com\fengdu\service\UserService.java
E:\workspace\my-shop\my-shop-member\src\main\java\com\fengdu\entity\UserEntity.java
E:\workspace\my-shop\my-shop-member\src\main\java\com\fengdu\service\impl\UserLevelServiceImpl.java
E:\workspace\my-shop\my-shop-member\src\main\java\com\fengdu\controller\UserController.java
